{
  "type": "service_account",
  "project_id": "outstanding-map-209903",
  "private_key_id": "c6bd2b9f05ef83f5fba69b62e1b0a7def2235753",
  "private_key": "-----BEGIN PRIVATE KEY-----\nMIIEvgIBADANBgkqhkiG9w0BAQEFAASCBKgwggSkAgEAAoIBAQDQnMUWfU28CsG5\nLieVGtlLdg/d8ZD8yBWRMf7RJ4wTuGEdz1RNgASJDZcj7v8KqYjNzOtIJ0HxmzMp\nZVsQ1VvaTKlEW8CYkiWJOYQ9+HPcfJXn7i2uewwY7TE0zrqEj/rj4oAyl7bj0hgH\nkvnMJM3G82ZtCQOcrm0V+NlLLkntyzbvit2qgNYeCiex2U+HkG1D6mPw/ljfc9E/\nkSLffeTVMTE5DXbM6/ZxbjgfOvZZdcHQPqlJ6v0GfE/LTumI8k9Nu+XO/iSYRMyk\n7alrR9yUPYKW5dSEhNuF2+EinRmgpuFmzWhZsq23BaL0vzLQmvrIn1X+nrEOd14m\ngmtfRqRvAgMBAAECggEAIbRagXYwQ4PnZcBnw8bpObBzAtRfLQA0v9c4iNlfX+ZH\nxpWzVKwsz2njM/qOuU3H3RxRHUC+fkcpfnQyQOd/5ibBqFo8pUnjh6bDz3FfYs28\nOJM6TTjzLOnRq+sEpptOmVgEh2gMtAVDPaII+ustVgoIT/CHZV6nIEgq72Mkrab/\nYIRp8uAzIkz4GX0ii1mvtRks7jb+T9+iEVFw8Y2U9GLGVMvanrJBRQ8iKyBmFIGO\nrm1jJL08izGjzN+Vp9REykYRUE7z4ghkCyEOUfDb7E6f0EL0AKE2S6f798T6F3Cn\n/VL2Qbm/T9b+J8h6ClDMKHS/txyhKub40fFSJ+9WxQKBgQDsqzndsE0SudzAEyWX\nfaUd5vI+penCX7ntbmGaf5qcvm+VKG32+Jd0rTJNE2XT48ksy014kFlqf76iJBJK\nO5elOjGzlo90I/f6ZBPjPLY+abBj0hXKXGVROdjvpJ++UXCDVyDalZxPT0CsQ1Fe\nLcXuKgIgu1mFFQj/7tqmUvSAQwKBgQDhpuE0mqNpx1NRJfSfKSmgEl+cdxjIL61F\nVkGyDl+1kFynEFcs426I0ZUKsy9xhXVhjv39jQNUyqZxt72SDh7fD0B3PLemv10U\nH6D7srqgKCT8dtKeyK26XURpgGJx3mVMCaGD0xnvGoct0oxuXAueKPhgQ+cOLNpD\n8Fp8KOwuZQKBgQC6wwA+DjM0FNG8DR/8JR2YtDfz8i++wJXTZOjG5+2Vxb3+IdJt\nM40peMeaBTW0+Ss3GxP+kULOhRJllzuLsu0faQXxp117FCtLP5BmIPHb3MFidFXX\nxAP8Dj9AFVQt9sxoCOiXNbsM5witJ85dGJf6MtJNDCs/lvLsLIwE9q+VSwKBgQCQ\n/IXFI/sNk0ogYM/dmDgrpsKSKR/eOGwPmg2aF4w9f+VYXrJ0oCk8ddVay6kXOtYh\n+huOV5WlXJQ3iwSeHL6POiCEvJmP5XMr4+qu7rblAwZIxRwtc+nUTesQErKuUWQq\nyCFkLzaBoDztH1Sl8DRyygZU7CxAumb/siahkjW21QKBgFbFYRGblHUtQfORRfOy\n77s0Qk2jyMzLIoBMFYiM42GhDlL1wSYIFYBqe94IkgqjWiSSBLOzQKcF8xR9adwQ\nt7IHNV9fX6ZZBsXCD0hBBHxRvuHr2EeUOChWCxaK3UZVPqQCt4azf2/uhaTJrtV2\nA+n8V1Lj+xjqgBDrhZnTmiQR\n-----END PRIVATE KEY-----\n",
  "client_email": "dreamspass-report@outstanding-map-209903.iam.gserviceaccount.com",
  "client_id": "110557531522355859349",
  "auth_uri": "https://accounts.google.com/o/oauth2/auth",
  "token_uri": "https://oauth2.googleapis.com/token",
  "auth_provider_x509_cert_url": "https://www.googleapis.com/oauth2/v1/certs",
  "client_x509_cert_url": "https://www.googleapis.com/robot/v1/metadata/x509/dreamspass-report%40outstanding-map-209903.iam.gserviceaccount.com"
}
